*** Darwin 8x8 ***
Turn = 0.
  01234567
0 f.......
1 f.......
2 ........
3 h..hr...
4 ...th...
5 ....rh..
6 ...t....
7 ..f....f

Turn = 1.
  01234567
0 f.......
1 f.......
2 h..h....
3 .....r..
4 ...th...
5 ....r...
6 ...t.r..
7 ..f....f

Turn = 2.
  01234567
0 f.......
1 f..h....
2 h.......
3 ......r.
4 ...th...
5 .....r..
6 ...t....
7 ..f..r.f

Turn = 3.
  01234567
0 f..h....
1 f.......
2 h.......
3 .......r
4 ...tt...
5 ......r.
6 ...t....
7 ..f..r.f

Turn = 4.
  01234567
0 f..h....
1 f.......
2 h.......
3 .......r
4 ...tt...
5 .......r
6 ...t....
7 ..f.r..f

Turn = 5.
  01234567
0 f..h....
1 f.......
2 h......r
3 ........
4 ...tt...
5 .......r
6 ...t....
7 ..fr...f

*** Darwin 10x10 ***
Turn = 0.
  0123456789
0 t.........
1 ..........
2 ..........
3 ..h.......
4 ..........
5 ....rt....
6 ......r.t.
7 ..h.......
8 ........t.
9 ..........

Turn = 1.
  0123456789
0 t.........
1 ..........
2 ..........
3 ...h......
4 ....r.....
5 .....tr...
6 ........t.
7 ...h......
8 ........t.
9 ..........

Turn = 2.
  0123456789
0 t.........
1 ..........
2 ..........
3 ....r.....
4 ....r.....
5 .....tt...
6 ........t.
7 ....h.....
8 ........t.
9 ..........

Turn = 3.
  0123456789
0 t.........
1 ..........
2 ..........
3 ....rr....
4 ..........
5 .....tt...
6 ........t.
7 .....h....
8 ........t.
9 ..........

Turn = 4.
  0123456789
0 t.........
1 ..........
2 ....r.....
3 ......r...
4 ..........
5 .....tt...
6 ........t.
7 ......h...
8 ........t.
9 ..........

Turn = 5.
  0123456789
0 t.........
1 ....r.....
2 ..........
3 .......r..
4 ..........
5 .....tt...
6 ........t.
7 .......h..
8 ........t.
9 ..........

*** Darwin 6x6 ***
Turn = 0.
  012345
0 ......
1 ......
2 ..f...
3 ...r..
4 ...r..
5 ......

Turn = 1.
  012345
0 ......
1 ......
2 ..fr..
3 ...r..
4 ......
5 ......

Turn = 2.
  012345
0 ......
1 ...r..
2 ..fr..
3 ......
4 ......
5 ......

Turn = 3.
  012345
0 ...r..
1 ...r..
2 ..f...
3 ......
4 ......
5 ......

Turn = 4.
  012345
0 ...r..
1 ...r..
2 ..f...
3 ......
4 ......
5 ......

Turn = 5.
  012345
0 ....r.
1 ..r...
2 ..f...
3 ......
4 ......
5 ......

Turn = 6.
  012345
0 .....r
1 .r....
2 ..f...
3 ......
4 ......
5 ......

*** Darwin 10x10 ***
Turn = 0.
  0123456789
0 ..........
1 ..........
2 ..........
3 ...hr.....
4 ...th.....
5 ..........
6 ..........
7 .......f..
8 ..........
9 ..........

Turn = 1.
  0123456789
0 ..........
1 ..........
2 ...h......
3 .....r....
4 ...t......
5 ....h.....
6 ..........
7 .......f..
8 ..........
9 ..........

Turn = 2.
  0123456789
0 ..........
1 ...h......
2 ..........
3 ......r...
4 ...t......
5 ..........
6 ....h.....
7 .......f..
8 ..........
9 ..........

Turn = 3.
  0123456789
0 ...h......
1 ..........
2 ..........
3 .......r..
4 ...t......
5 ..........
6 ..........
7 ....h..f..
8 ..........
9 ..........

Turn = 4.
  0123456789
0 ...h......
1 ..........
2 ..........
3 ........r.
4 ...t......
5 ..........
6 ..........
7 .......f..
8 ....h.....
9 ..........

Turn = 5.
  0123456789
0 ...h......
1 ..........
2 ..........
3 .........r
4 ...t......
5 ..........
6 ..........
7 .......f..
8 ..........
9 ....h.....

*** Darwin 10x10 ***
Turn = 0.
  0123456789
0 ..........
1 ..........
2 ..........
3 ....r.....
4 ...th.....
5 ..........
6 ..........
7 .......f..
8 ..........
9 ..........

Turn = 2.
  0123456789
0 ..........
1 ..........
2 ..........
3 ......r...
4 ...t......
5 ..........
6 ....h.....
7 .......f..
8 ..........
9 ..........

Turn = 4.
  0123456789
0 ..........
1 ..........
2 ..........
3 ........r.
4 ...t......
5 ..........
6 ..........
7 .......f..
8 ....h.....
9 ..........

Turn = 6.
  0123456789
0 ..........
1 ..........
2 ..........
3 .........r
4 ...t......
5 ..........
6 ..........
7 .......f..
8 ..........
9 ....h.....

*** Darwin 9x9 ***
Turn = 0.
  012345678
0 .........
1 .........
2 .........
3 ...hr....
4 ...th....
5 .........
6 .........
7 .......f.
8 .........

Turn = 1.
  012345678
0 .........
1 .........
2 .........
3 ...t.r...
4 ...th....
5 .........
6 .........
7 .......f.
8 .........

Turn = 2.
  012345678
0 .........
1 .........
2 .........
3 ...t..r..
4 ...th....
5 .........
6 .........
7 .......f.
8 .........

Turn = 3.
  012345678
0 .........
1 .........
2 .........
3 ...t...r.
4 ...th....
5 .........
6 .........
7 .......f.
8 .........

Turn = 4.
  012345678
0 .........
1 .........
2 .........
3 ...t....r
4 ...th....
5 .........
6 .........
7 .......f.
8 .........

Turn = 5.
  012345678
0 .........
1 .........
2 .........
3 ...t....r
4 ...tt....
5 .........
6 .........
7 .......f.
8 .........

*** Darwin 6x6 ***
Turn = 0.
  012345
0 ......
1 ......
2 ..f...
3 ...r..
4 ...r..
5 ......

Turn = 1.
  012345
0 ......
1 ......
2 ..fr..
3 ......
4 ....r.
5 ......

Turn = 2.
  012345
0 ......
1 ...r..
2 ..f...
3 ......
4 .....r
5 ......

Turn = 3.
  012345
0 ...r..
1 ......
2 ..f...
3 ......
4 .....r
5 ......

Turn = 4.
  012345
0 ...r..
1 ......
2 ..f...
3 ......
4 ......
5 .....r

Turn = 5.
  012345
0 ..r...
1 ......
2 ..f...
3 ......
4 ......
5 .....r

Turn = 6.
  012345
0 .r....
1 ......
2 ..f...
3 ......
4 ......
5 ....r.

*** Darwin 10x10 ***
Turn = 0.
  0123456789
0 ..........
1 ..........
2 ..........
3 ...hr.....
4 ...th.....
5 ..........
6 ..........
7 .......f..
8 ..........
9 ..........

Turn = 1.
  0123456789
0 ..........
1 ..........
2 ...hr.....
3 ..........
4 ...t......
5 ....h.....
6 ..........
7 .......f..
8 ..........
9 ..........

Turn = 2.
  0123456789
0 ..........
1 ...hr.....
2 ..........
3 ..........
4 ...t......
5 ..........
6 ....h.....
7 .......f..
8 ..........
9 ..........

Turn = 3.
  0123456789
0 ...hr.....
1 ..........
2 ..........
3 ..........
4 ...t......
5 ..........
6 ..........
7 ....h..f..
8 ..........
9 ..........

Turn = 4.
  0123456789
0 ...hr.....
1 ..........
2 ..........
3 ..........
4 ...t......
5 ..........
6 ..........
7 .......f..
8 ....h.....
9 ..........

Turn = 5.
  0123456789
0 ...h.r....
1 ..........
2 ..........
3 ..........
4 ...t......
5 ..........
6 ..........
7 .......f..
8 ..........
9 ....h.....

*** Darwin 10x10 ***
Turn = 0.
  0123456789
0 r.........
1 ..........
2 ..........
3 ....r.....
4 .h.th.....
5 ..........
6 ..........
7 .......f..
8 ..........
9 ..........

Turn = 2.
  0123456789
0 ..r.......
1 ..........
2 .h........
3 ......r...
4 ...tt.....
5 ..........
6 ..........
7 .......f..
8 ..........
9 ..........

Turn = 4.
  0123456789
0 .h..r.....
1 ..........
2 ..........
3 ........r.
4 ...tt.....
5 ..........
6 ..........
7 .......f..
8 ..........
9 ..........

Turn = 6.
  0123456789
0 .h....r...
1 ..........
2 ..........
3 .........r
4 ...tt.....
5 ..........
6 ..........
7 .......f..
8 ..........
9 ..........

*** Darwin 8x8 ***
Turn = 0.
  01234567
0 ........
1 ........
2 ......tf
3 ...hr...
4 ...th...
5 .....hrh
6 ........
7 .......f

Turn = 1.
  01234567
0 ........
1 ........
2 ......tf
3 ...rr...
4 ...th..h
5 .....rr.
6 ........
7 .......f

Turn = 2.
  01234567
0 ........
1 ........
2 ......tt
3 ...rt..h
4 ...tt...
5 .....rr.
6 ........
7 .......f

Turn = 3.
  01234567
0 ........
1 ........
2 ......tt
3 ...rr..h
4 ...rr.r.
5 ........
6 .....r..
7 .......f

Turn = 4.
  01234567
0 ........
1 ........
2 ......tt
3 ...rrrrh
4 ...r....
5 ........
6 ........
7 .....r.f

Turn = 5.
  01234567
0 ........
1 ........
2 ....r.rt
3 ..r..rrh
4 ........
5 ...r....
6 ........
7 .....r.f
